<?xml version="1.0" encoding="UTF-8" standalone="no"?>
<svg width="24px" height="14px" viewBox="0 0 24 14" version="1.1" xmlns="http://www.w3.org/2000/svg" xmlns:xlink="http://www.w3.org/1999/xlink">
    <!-- Generator: Sketch 41 (35326) - http://www.bohemiancoding.com/sketch -->
    <title>Triangle</title>
    <desc>Created with Sketch.</desc>
    <defs></defs>
    <g id="Page-1" stroke="none" stroke-width="1" fill="none" fill-rule="evenodd">
        <path d="M10.6929461,1.52489617 C11.4148121,0.682719272 12.5787849,0.6752491 13.3070539,1.52489617 L24,14 L0,14 L10.6929461,1.52489617 Z" id="Triangle" fill="#D8D8D8"></path>
    </g>
</svg>